…
+            sep = "-")
> 
> 
> refine_original <- refine_original %>% 
+   mutate(product_categories = ifelse(grepl("p", product_code), "Smartphone", product_categories)) %>% 
+   mutate(product_categories = ifelse(grepl("v", product_code), "TV", product_categories)) %>% 
+   mutate(product_categories = ifelse(grepl("x", product_code), "Laptop", product_categories)) %>% 
+   mutate(product_categories = ifelse(grepl("q", product_code), "Tablet", product_categories))
Error in mutate_impl(.data, dots) : 
  Evaluation error: object 'product_categories' not found.
> mutate(refine_original,product_categories)
Error in mutate_impl(.data, dots) : 
  Binding not found: product_categories.
> mutate(refine_original,product_categories = 0)
# A tibble: 25 x 8
   company product_code product_number address             city   country         name            product_categories
   <chr>   <chr>        <chr>          <chr>               <chr>  <chr>           <chr>                        <dbl>
 1 philips p            5              Groningensingel 147 arnhem the netherlands dhr p. jansen                   0.
 2 philips p            43             Groningensingel 148 arnhem the netherlands dhr p. hansen                   0.
 3 philips x            3              Groningensingel 149 arnhem the netherlands dhr j. Gansen                   0.
 4 philips x            34             Groningensingel 150 arnhem the netherlands dhr p. mansen                   0.
 5 philips x            12             Groningensingel 151 arnhem the netherlands dhr p. fransen                  0.
 6 philips p            23             Groningensingel 152 arnhem the netherlands dhr p. franssen                 0.
 7 akzo    v            43             Leeuwardenweg 178   arnhem the netherlands dhr p. bansen                   0.
 8 akzo    v            12             Leeuwardenweg 179   arnhem the netherlands dhr p. vansen                   0.
 9 akzo    x            5              Leeuwardenweg 180   arnhem the netherlands dhr p. bransen                  0.
10 akzo    p            34             Leeuwardenweg 181   arnhem the netherlands dhr p. janssen                  0.
# ... with 15 more rows
> refine_original
# A tibble: 25 x 7
   company product_code product_number address             city   country         name           
   <chr>   <chr>        <chr>          <chr>               <chr>  <chr>           <chr>          
 1 philips p            5              Groningensingel 147 arnhem the netherlands dhr p. jansen  
 2 philips p            43             Groningensingel 148 arnhem the netherlands dhr p. hansen  
 3 philips x            3              Groningensingel 149 arnhem the netherlands dhr j. Gansen  
 4 philips x            34             Groningensingel 150 arnhem the netherlands dhr p. mansen  
 5 philips x            12             Groningensingel 151 arnhem the netherlands dhr p. fransen 
 6 philips p            23             Groningensingel 152 arnhem the netherlands dhr p. franssen
 7 akzo    v            43             Leeuwardenweg 178   arnhem the netherlands dhr p. bansen  
 8 akzo    v            12             Leeuwardenweg 179   arnhem the netherlands dhr p. vansen  
 9 akzo    x            5              Leeuwardenweg 180   arnhem the netherlands dhr p. bransen 
10 akzo    p            34             Leeuwardenweg 181   arnhem the netherlands dhr p. janssen 
# ... with 15 more rows
…
